[2021-09-23 11:17:05.045] [settingssync] [info] Using settings sync service https://vscode-sync.trafficmanager.net/
[2021-09-23 11:17:05.045] [settingssync] [info] Auto Sync is enabled.
[2021-09-23 11:17:05.045] [settingssync] [info] Auto Sync: Suspended until auth token is available.
[2021-09-23 11:17:07.112] [settingssync] [info] Auto Sync: Started
[2021-09-23 11:17:07.112] [settingssync] [info] Auto Sync: Triggered by Interval
[2021-09-23 11:17:19.366] [settingssync] [info] Settings: No changes found during synchronizing settings.
[2021-09-23 11:17:19.370] [settingssync] [info] Keybindings: No changes found during synchronizing keybindings.
[2021-09-23 11:17:19.372] [settingssync] [info] Snippets: No changes found during synchronizing snippets.
[2021-09-23 11:17:19.385] [settingssync] [info] GlobalState: No changes found during synchronizing ui state.
[2021-09-23 11:17:19.451] [settingssync] [info] Extensions: No changes found during synchronizing extensions.
[2021-09-23 11:17:19.457] [settingssync] [info] Sync done. Took 129ms
[2021-09-23 11:17:19.458] [settingssync] [info] Auto Sync: Triggered by Activity
[2021-09-23 11:17:32.793] [settingssync] [info] Settings: No changes found during synchronizing settings.
[2021-09-23 11:17:32.795] [settingssync] [info] Keybindings: No changes found during synchronizing keybindings.
[2021-09-23 11:17:32.797] [settingssync] [info] Snippets: No changes found during synchronizing snippets.
[2021-09-23 11:17:32.814] [settingssync] [info] GlobalState: No changes found during synchronizing ui state.
[2021-09-23 11:17:32.887] [settingssync] [info] Extensions: No changes found during synchronizing extensions.
[2021-09-23 11:17:32.891] [settingssync] [info] Sync done. Took 130ms
[2021-09-23 11:17:39.362] [settingssync] [info] Auto Sync: Triggered by Activity
[2021-09-23 11:17:39.734] [settingssync] [info] Settings: No changes found during synchronizing settings.
[2021-09-23 11:17:39.740] [settingssync] [info] Keybindings: No changes found during synchronizing keybindings.
[2021-09-23 11:17:39.745] [settingssync] [info] Snippets: No changes found during synchronizing snippets.
[2021-09-23 11:17:39.764] [settingssync] [info] GlobalState: No changes found during synchronizing ui state.
[2021-09-23 11:17:39.839] [settingssync] [info] Extensions: No changes found during synchronizing extensions.
[2021-09-23 11:17:39.839] [settingssync] [info] Sync done. Took 188ms
[2021-09-23 11:17:50.008] [settingssync] [info] Auto Sync: Triggered by Activity
[2021-09-23 11:17:56.454] [settingssync] [info] Settings: No changes found during synchronizing settings.
[2021-09-23 11:17:56.459] [settingssync] [info] Keybindings: No changes found during synchronizing keybindings.
[2021-09-23 11:17:56.463] [settingssync] [info] Snippets: No changes found during synchronizing snippets.
[2021-09-23 11:17:56.489] [settingssync] [info] GlobalState: No changes found during synchronizing ui state.
[2021-09-23 11:17:56.546] [settingssync] [info] Extensions: No changes found during synchronizing extensions.
[2021-09-23 11:17:56.552] [settingssync] [info] Sync done. Took 107ms
[2021-09-23 11:18:04.474] [settingssync] [info] Auto Sync: Triggered by Activity
[2021-09-23 11:18:04.782] [settingssync] [info] Settings: No changes found during synchronizing settings.
[2021-09-23 11:18:04.784] [settingssync] [info] Keybindings: No changes found during synchronizing keybindings.
[2021-09-23 11:18:04.787] [settingssync] [info] Snippets: No changes found during synchronizing snippets.
[2021-09-23 11:18:04.807] [settingssync] [info] GlobalState: No changes found during synchronizing ui state.
[2021-09-23 11:18:04.897] [settingssync] [info] Extensions: No changes found during synchronizing extensions.
[2021-09-23 11:18:04.898] [settingssync] [info] Sync done. Took 159ms
[2021-09-23 11:18:40.414] [settingssync] [info] Auto Sync: Triggered by Activity
[2021-09-23 11:20:50.133] [settingssync] [info] Request failed https://vscode-sync.trafficmanager.net/v1/manifest
[2021-09-23 11:20:50.134] [settingssync] [error] RequestFailed (UserDataSyncError) syncResource:unknown operationId:unknown: Connection refused for the request 'https://vscode-sync.trafficmanager.net/v1/manifest'.
    at S.request (vscode-file://vscode-app/opt/visual-studio-code/resources/app/out/vs/code/electron-browser/sharedProcess/sharedProcessMain.js:58:171209)
    at async S.manifest (vscode-file://vscode-app/opt/visual-studio-code/resources/app/out/vs/code/electron-browser/sharedProcess/sharedProcessMain.js:58:168934)
    at async o.createSyncTask (vscode-file://vscode-app/opt/visual-studio-code/resources/app/out/vs/code/electron-browser/sharedProcess/sharedProcessMain.js:58:140173)
    at async u.doSync (vscode-file://vscode-app/opt/visual-studio-code/resources/app/out/vs/code/electron-browser/sharedProcess/sharedProcessMain.js:58:134594)
[2021-09-23 11:20:50.134] [settingssync] [error] RequestFailed (UserDataSyncError) syncResource:unknown operationId:unknown: Connection refused for the request 'https://vscode-sync.trafficmanager.net/v1/manifest'.
    at S.request (vscode-file://vscode-app/opt/visual-studio-code/resources/app/out/vs/code/electron-browser/sharedProcess/sharedProcessMain.js:58:171209)
    at async S.manifest (vscode-file://vscode-app/opt/visual-studio-code/resources/app/out/vs/code/electron-browser/sharedProcess/sharedProcessMain.js:58:168934)
    at async o.createSyncTask (vscode-file://vscode-app/opt/visual-studio-code/resources/app/out/vs/code/electron-browser/sharedProcess/sharedProcessMain.js:58:140173)
    at async u.doSync (vscode-file://vscode-app/opt/visual-studio-code/resources/app/out/vs/code/electron-browser/sharedProcess/sharedProcessMain.js:58:134594)
[2021-09-23 11:20:50.135] [settingssync] [info] Auto Sync: Triggered by Activity
[2021-09-23 11:20:50.833] [settingssync] [info] Settings: No changes found during synchronizing settings.
[2021-09-23 11:20:50.836] [settingssync] [info] Keybindings: No changes found during synchronizing keybindings.
[2021-09-23 11:20:50.839] [settingssync] [info] Snippets: No changes found during synchronizing snippets.
[2021-09-23 11:20:50.861] [settingssync] [info] GlobalState: No changes found during synchronizing ui state.
[2021-09-23 11:20:50.918] [settingssync] [info] Extensions: No changes found during synchronizing extensions.
[2021-09-23 11:20:50.921] [settingssync] [info] Sync done. Took 109ms
[2021-09-23 11:20:50.921] [settingssync] [info] Auto Sync: Triggered by Activity
[2021-09-23 11:21:01.069] [settingssync] [info] Settings: No changes found during synchronizing settings.
[2021-09-23 11:21:01.076] [settingssync] [info] Keybindings: No changes found during synchronizing keybindings.
[2021-09-23 11:21:01.082] [settingssync] [info] Snippets: No changes found during synchronizing snippets.
[2021-09-23 11:21:01.106] [settingssync] [info] GlobalState: No changes found during synchronizing ui state.
[2021-09-23 11:21:01.192] [settingssync] [info] Extensions: No changes found during synchronizing extensions.
[2021-09-23 11:21:01.194] [settingssync] [info] Sync done. Took 189ms
[2021-09-23 11:21:01.194] [settingssync] [info] Auto Sync: Triggered by Activity
[2021-09-23 11:21:16.802] [settingssync] [info] Auto Sync: Triggered by Activity
[2021-09-23 11:21:17.466] [settingssync] [info] Settings: No changes found during synchronizing settings.
[2021-09-23 11:21:17.472] [settingssync] [info] Keybindings: No changes found during synchronizing keybindings.
[2021-09-23 11:21:17.475] [settingssync] [info] Snippets: No changes found during synchronizing snippets.
[2021-09-23 11:21:17.497] [settingssync] [info] GlobalState: No changes found during synchronizing ui state.
[2021-09-23 11:21:17.569] [settingssync] [info] Extensions: No changes found during synchronizing extensions.
[2021-09-23 11:21:17.571] [settingssync] [info] Sync done. Took 145ms
[2021-09-23 11:22:47.177] [settingssync] [info] Auto Sync: Triggered by Activity
[2021-09-23 11:22:47.533] [settingssync] [info] Settings: No changes found during synchronizing settings.
[2021-09-23 11:22:47.541] [settingssync] [info] Keybindings: No changes found during synchronizing keybindings.
[2021-09-23 11:22:47.544] [settingssync] [info] Snippets: No changes found during synchronizing snippets.
[2021-09-23 11:22:47.566] [settingssync] [info] GlobalState: No changes found during synchronizing ui state.
[2021-09-23 11:22:47.688] [settingssync] [info] Extensions: No changes found during synchronizing extensions.
[2021-09-23 11:22:47.700] [settingssync] [info] Sync done. Took 260ms
[2021-09-23 11:23:11.472] [settingssync] [info] Request failed https://vscode-sync.trafficmanager.net/v1/manifest
[2021-09-23 11:23:11.472] [settingssync] [error] RequestFailed (UserDataSyncError) syncResource:unknown operationId:unknown: Connection refused for the request 'https://vscode-sync.trafficmanager.net/v1/manifest'.
    at S.request (vscode-file://vscode-app/opt/visual-studio-code/resources/app/out/vs/code/electron-browser/sharedProcess/sharedProcessMain.js:58:171209)
    at async S.manifest (vscode-file://vscode-app/opt/visual-studio-code/resources/app/out/vs/code/electron-browser/sharedProcess/sharedProcessMain.js:58:168934)
    at async o.createSyncTask (vscode-file://vscode-app/opt/visual-studio-code/resources/app/out/vs/code/electron-browser/sharedProcess/sharedProcessMain.js:58:140173)
    at async u.doSync (vscode-file://vscode-app/opt/visual-studio-code/resources/app/out/vs/code/electron-browser/sharedProcess/sharedProcessMain.js:58:134594)
[2021-09-23 11:23:11.473] [settingssync] [error] RequestFailed (UserDataSyncError) syncResource:unknown operationId:unknown: Connection refused for the request 'https://vscode-sync.trafficmanager.net/v1/manifest'.
    at S.request (vscode-file://vscode-app/opt/visual-studio-code/resources/app/out/vs/code/electron-browser/sharedProcess/sharedProcessMain.js:58:171209)
    at async S.manifest (vscode-file://vscode-app/opt/visual-studio-code/resources/app/out/vs/code/electron-browser/sharedProcess/sharedProcessMain.js:58:168934)
    at async o.createSyncTask (vscode-file://vscode-app/opt/visual-studio-code/resources/app/out/vs/code/electron-browser/sharedProcess/sharedProcessMain.js:58:140173)
    at async u.doSync (vscode-file://vscode-app/opt/visual-studio-code/resources/app/out/vs/code/electron-browser/sharedProcess/sharedProcessMain.js:58:134594)
[2021-09-23 11:23:11.473] [settingssync] [info] Auto Sync: Triggered by Activity
[2021-09-23 11:23:11.800] [settingssync] [info] Settings: No changes found during synchronizing settings.
[2021-09-23 11:23:11.803] [settingssync] [info] Keybindings: No changes found during synchronizing keybindings.
[2021-09-23 11:23:11.805] [settingssync] [info] Snippets: No changes found during synchronizing snippets.
[2021-09-23 11:23:11.821] [settingssync] [info] GlobalState: No changes found during synchronizing ui state.
[2021-09-23 11:23:11.880] [settingssync] [info] Extensions: No changes found during synchronizing extensions.
[2021-09-23 11:23:11.882] [settingssync] [info] Sync done. Took 113ms
[2021-09-23 11:23:11.882] [settingssync] [info] Auto Sync: Triggered by Activity
[2021-09-23 11:23:28.443] [settingssync] [info] Settings: No changes found during synchronizing settings.
[2021-09-23 11:23:28.445] [settingssync] [info] Keybindings: No changes found during synchronizing keybindings.
[2021-09-23 11:23:28.447] [settingssync] [info] Snippets: No changes found during synchronizing snippets.
[2021-09-23 11:23:28.470] [settingssync] [info] GlobalState: No changes found during synchronizing ui state.
[2021-09-23 11:23:28.532] [settingssync] [info] Extensions: No changes found during synchronizing extensions.
[2021-09-23 11:23:28.536] [settingssync] [info] Sync done. Took 106ms
[2021-09-23 11:23:28.536] [settingssync] [info] Auto Sync: Triggered by Activity
[2021-09-23 11:23:28.838] [settingssync] [info] Settings: No changes found during synchronizing settings.
[2021-09-23 11:23:28.839] [settingssync] [info] Keybindings: No changes found during synchronizing keybindings.
[2021-09-23 11:23:28.844] [settingssync] [info] Snippets: No changes found during synchronizing snippets.
[2021-09-23 11:23:28.859] [settingssync] [info] GlobalState: No changes found during synchronizing ui state.
[2021-09-23 11:23:28.931] [settingssync] [info] Extensions: No changes found during synchronizing extensions.
[2021-09-23 11:23:28.931] [settingssync] [info] Sync done. Took 128ms
[2021-09-23 11:24:29.827] [settingssync] [info] Auto Sync: Triggered by Activity
[2021-09-23 11:24:30.113] [settingssync] [info] Settings: No changes found during synchronizing settings.
[2021-09-23 11:24:30.126] [settingssync] [info] Keybindings: No changes found during synchronizing keybindings.
[2021-09-23 11:24:30.142] [settingssync] [info] Snippets: No changes found during synchronizing snippets.
[2021-09-23 11:24:30.216] [settingssync] [info] GlobalState: No changes found during synchronizing ui state.
[2021-09-23 11:24:30.287] [settingssync] [info] Extensions: No changes found during synchronizing extensions.
[2021-09-23 11:24:30.288] [settingssync] [info] Sync done. Took 199ms
[2021-09-23 11:25:46.316] [settingssync] [info] Auto Sync: Triggered by Activity
[2021-09-23 11:26:56.102] [settingssync] [info] Settings: No changes found during synchronizing settings.
[2021-09-23 11:26:56.106] [settingssync] [info] Keybindings: No changes found during synchronizing keybindings.
[2021-09-23 11:26:56.107] [settingssync] [info] Snippets: No changes found during synchronizing snippets.
[2021-09-23 11:26:56.123] [settingssync] [info] GlobalState: No changes found during synchronizing ui state.
[2021-09-23 11:26:56.177] [settingssync] [info] Extensions: No changes found during synchronizing extensions.
[2021-09-23 11:26:56.179] [settingssync] [info] Sync done. Took 112ms
[2021-09-23 11:26:56.179] [settingssync] [info] Auto Sync: Triggered by Activity
[2021-09-23 11:26:56.497] [settingssync] [info] Settings: No changes found during synchronizing settings.
[2021-09-23 11:26:56.498] [settingssync] [info] Keybindings: No changes found during synchronizing keybindings.
[2021-09-23 11:26:56.499] [settingssync] [info] Snippets: No changes found during synchronizing snippets.
[2021-09-23 11:26:56.512] [settingssync] [info] GlobalState: No changes found during synchronizing ui state.
[2021-09-23 11:26:56.566] [settingssync] [info] Extensions: No changes found during synchronizing extensions.
[2021-09-23 11:26:56.567] [settingssync] [info] Sync done. Took 124ms
[2021-09-23 11:31:56.577] [settingssync] [info] Auto Sync: Triggered by Interval
[2021-09-23 11:31:57.317] [settingssync] [info] Settings: No changes found during synchronizing settings.
[2021-09-23 11:31:57.320] [settingssync] [info] Keybindings: No changes found during synchronizing keybindings.
[2021-09-23 11:31:57.323] [settingssync] [info] Snippets: No changes found during synchronizing snippets.
[2021-09-23 11:31:57.345] [settingssync] [info] GlobalState: No changes found during synchronizing ui state.
[2021-09-23 11:31:57.403] [settingssync] [info] Extensions: No changes found during synchronizing extensions.
[2021-09-23 11:31:57.404] [settingssync] [info] Sync done. Took 109ms
[2021-09-23 11:33:27.683] [settingssync] [info] Auto Sync: Triggered by Activity
[2021-09-23 11:33:28.025] [settingssync] [info] Settings: No changes found during synchronizing settings.
[2021-09-23 11:33:28.029] [settingssync] [info] Keybindings: No changes found during synchronizing keybindings.
[2021-09-23 11:33:28.032] [settingssync] [info] Snippets: No changes found during synchronizing snippets.
[2021-09-23 11:33:28.055] [settingssync] [info] GlobalState: No changes found during synchronizing ui state.
[2021-09-23 11:33:28.144] [settingssync] [info] Extensions: No changes found during synchronizing extensions.
[2021-09-23 11:33:28.145] [settingssync] [info] Sync done. Took 199ms
[2021-09-23 11:38:28.148] [settingssync] [info] Auto Sync: Triggered by Interval
[2021-09-23 11:38:28.922] [settingssync] [info] Settings: No changes found during synchronizing settings.
[2021-09-23 11:38:28.926] [settingssync] [info] Keybindings: No changes found during synchronizing keybindings.
[2021-09-23 11:38:28.933] [settingssync] [info] Snippets: No changes found during synchronizing snippets.
[2021-09-23 11:38:28.962] [settingssync] [info] GlobalState: No changes found during synchronizing ui state.
[2021-09-23 11:38:29.044] [settingssync] [info] Extensions: No changes found during synchronizing extensions.
[2021-09-23 11:38:29.047] [settingssync] [info] Sync done. Took 175ms
[2021-09-23 11:40:50.783] [settingssync] [info] Auto Sync: Triggered by Activity
[2021-09-23 11:40:51.682] [settingssync] [info] Settings: No changes found during synchronizing settings.
[2021-09-23 11:40:51.691] [settingssync] [info] Keybindings: No changes found during synchronizing keybindings.
[2021-09-23 11:40:51.714] [settingssync] [info] Snippets: No changes found during synchronizing snippets.
[2021-09-23 11:40:51.789] [settingssync] [info] GlobalState: No changes found during synchronizing ui state.
[2021-09-23 11:40:51.861] [settingssync] [info] Extensions: No changes found during synchronizing extensions.
[2021-09-23 11:40:51.865] [settingssync] [info] Sync done. Took 221ms
[2021-09-23 11:41:26.970] [settingssync] [info] Auto Sync: Triggered by Activity
[2021-09-23 11:41:27.279] [settingssync] [info] Settings: No changes found during synchronizing settings.
[2021-09-23 11:41:27.287] [settingssync] [info] Keybindings: No changes found during synchronizing keybindings.
[2021-09-23 11:41:27.290] [settingssync] [info] Snippets: No changes found during synchronizing snippets.
[2021-09-23 11:41:27.315] [settingssync] [info] GlobalState: No changes found during synchronizing ui state.
[2021-09-23 11:41:27.421] [settingssync] [info] Extensions: No changes found during synchronizing extensions.
[2021-09-23 11:41:27.433] [settingssync] [info] Sync done. Took 185ms
[2021-09-23 11:46:27.427] [settingssync] [info] Auto Sync: Triggered by Interval
[2021-09-23 11:47:38.913] [settingssync] [info] Settings: No changes found during synchronizing settings.
[2021-09-23 11:47:38.919] [settingssync] [info] Keybindings: No changes found during synchronizing keybindings.
[2021-09-23 11:47:38.921] [settingssync] [info] Snippets: No changes found during synchronizing snippets.
[2021-09-23 11:47:38.943] [settingssync] [info] GlobalState: No changes found during synchronizing ui state.
[2021-09-23 11:47:39.025] [settingssync] [info] Extensions: No changes found during synchronizing extensions.
[2021-09-23 11:47:39.025] [settingssync] [info] Sync done. Took 198ms
[2021-09-23 11:48:02.534] [settingssync] [info] Auto Sync: Triggered by Activity
[2021-09-23 11:48:02.829] [settingssync] [info] Settings: No changes found during synchronizing settings.
[2021-09-23 11:48:02.838] [settingssync] [info] Keybindings: No changes found during synchronizing keybindings.
[2021-09-23 11:48:02.845] [settingssync] [info] Snippets: No changes found during synchronizing snippets.
[2021-09-23 11:48:02.866] [settingssync] [info] GlobalState: No changes found during synchronizing ui state.
[2021-09-23 11:48:02.922] [settingssync] [info] Extensions: No changes found during synchronizing extensions.
[2021-09-23 11:48:02.923] [settingssync] [info] Sync done. Took 119ms
[2021-09-23 11:48:33.140] [settingssync] [info] Auto Sync: Triggered by Activity
[2021-09-23 11:48:33.439] [settingssync] [info] Settings: No changes found during synchronizing settings.
[2021-09-23 11:48:33.442] [settingssync] [info] Keybindings: No changes found during synchronizing keybindings.
[2021-09-23 11:48:33.444] [settingssync] [info] Snippets: No changes found during synchronizing snippets.
[2021-09-23 11:48:33.463] [settingssync] [info] GlobalState: No changes found during synchronizing ui state.
[2021-09-23 11:48:33.521] [settingssync] [info] Extensions: No changes found during synchronizing extensions.
[2021-09-23 11:48:33.527] [settingssync] [info] Sync done. Took 125ms
[2021-09-23 11:53:33.527] [settingssync] [info] Auto Sync: Triggered by Interval
[2021-09-23 11:53:34.239] [settingssync] [info] Settings: No changes found during synchronizing settings.
[2021-09-23 11:53:34.241] [settingssync] [info] Keybindings: No changes found during synchronizing keybindings.
[2021-09-23 11:53:34.242] [settingssync] [info] Snippets: No changes found during synchronizing snippets.
[2021-09-23 11:53:34.264] [settingssync] [info] GlobalState: No changes found during synchronizing ui state.
[2021-09-23 11:53:34.333] [settingssync] [info] Extensions: No changes found during synchronizing extensions.
[2021-09-23 11:53:34.334] [settingssync] [info] Sync done. Took 133ms
[2021-09-23 11:57:12.962] [settingssync] [info] Auto Sync: Triggered by Activity
[2021-09-23 11:57:23.415] [settingssync] [info] Settings: No changes found during synchronizing settings.
[2021-09-23 11:57:23.418] [settingssync] [info] Keybindings: No changes found during synchronizing keybindings.
[2021-09-23 11:57:23.423] [settingssync] [info] Snippets: No changes found during synchronizing snippets.
[2021-09-23 11:57:23.450] [settingssync] [info] GlobalState: No changes found during synchronizing ui state.
[2021-09-23 11:57:23.526] [settingssync] [info] Extensions: No changes found during synchronizing extensions.
[2021-09-23 11:57:23.529] [settingssync] [info] Sync done. Took 198ms
[2021-09-23 12:00:10.696] [settingssync] [info] Auto Sync: Triggered by Activity
[2021-09-23 12:00:18.607] [settingssync] [info] Settings: No changes found during synchronizing settings.
[2021-09-23 12:00:18.611] [settingssync] [info] Keybindings: No changes found during synchronizing keybindings.
[2021-09-23 12:00:18.614] [settingssync] [info] Snippets: No changes found during synchronizing snippets.
[2021-09-23 12:00:18.633] [settingssync] [info] GlobalState: No changes found during synchronizing ui state.
[2021-09-23 12:00:18.700] [settingssync] [info] Extensions: No changes found during synchronizing extensions.
[2021-09-23 12:00:18.702] [settingssync] [info] Sync done. Took 132ms
[2021-09-23 12:02:12.650] [settingssync] [info] Auto Sync: Triggered by Activity
[2021-09-23 12:02:12.992] [settingssync] [info] Settings: No changes found during synchronizing settings.
[2021-09-23 12:02:13.013] [settingssync] [info] Keybindings: No changes found during synchronizing keybindings.
[2021-09-23 12:02:13.022] [settingssync] [info] Snippets: No changes found during synchronizing snippets.
[2021-09-23 12:02:13.064] [settingssync] [info] GlobalState: No changes found during synchronizing ui state.
[2021-09-23 12:02:13.156] [settingssync] [info] Extensions: No changes found during synchronizing extensions.
[2021-09-23 12:02:13.160] [settingssync] [info] Sync done. Took 238ms
[2021-09-23 12:02:35.772] [settingssync] [info] Auto Sync: Triggered by Activity
[2021-09-23 12:02:36.072] [settingssync] [info] Settings: No changes found during synchronizing settings.
[2021-09-23 12:02:36.074] [settingssync] [info] Keybindings: No changes found during synchronizing keybindings.
[2021-09-23 12:02:36.076] [settingssync] [info] Snippets: No changes found during synchronizing snippets.
[2021-09-23 12:02:36.096] [settingssync] [info] GlobalState: No changes found during synchronizing ui state.
[2021-09-23 12:02:36.184] [settingssync] [info] Extensions: No changes found during synchronizing extensions.
[2021-09-23 12:02:36.192] [settingssync] [info] Sync done. Took 155ms
[2021-09-23 12:03:01.133] [settingssync] [info] Auto Sync: Triggered by Activity
[2021-09-23 12:03:01.421] [settingssync] [info] Settings: No changes found during synchronizing settings.
[2021-09-23 12:03:01.423] [settingssync] [info] Keybindings: No changes found during synchronizing keybindings.
[2021-09-23 12:03:01.425] [settingssync] [info] Snippets: No changes found during synchronizing snippets.
[2021-09-23 12:03:01.441] [settingssync] [info] GlobalState: No changes found during synchronizing ui state.
[2021-09-23 12:03:01.497] [settingssync] [info] Extensions: No changes found during synchronizing extensions.
[2021-09-23 12:03:01.498] [settingssync] [info] Sync done. Took 103ms
[2021-09-23 12:05:40.704] [settingssync] [info] Auto Sync: Triggered by Activity
[2021-09-23 12:05:43.860] [settingssync] [info] Settings: No changes found during synchronizing settings.
[2021-09-23 12:05:43.862] [settingssync] [info] Keybindings: No changes found during synchronizing keybindings.
[2021-09-23 12:05:43.868] [settingssync] [info] Snippets: No changes found during synchronizing snippets.
[2021-09-23 12:05:43.888] [settingssync] [info] GlobalState: No changes found during synchronizing ui state.
[2021-09-23 12:05:43.940] [settingssync] [info] Extensions: No changes found during synchronizing extensions.
[2021-09-23 12:05:43.943] [settingssync] [info] Sync done. Took 97ms
[2021-09-23 12:09:04.203] [settingssync] [info] Auto Sync: Triggered by Activity
[2021-09-23 12:09:04.962] [settingssync] [info] Settings: No changes found during synchronizing settings.
[2021-09-23 12:09:04.968] [settingssync] [info] Keybindings: No changes found during synchronizing keybindings.
[2021-09-23 12:09:04.969] [settingssync] [info] Snippets: No changes found during synchronizing snippets.
[2021-09-23 12:09:04.986] [settingssync] [info] GlobalState: No changes found during synchronizing ui state.
[2021-09-23 12:09:05.041] [settingssync] [info] Extensions: No changes found during synchronizing extensions.
[2021-09-23 12:09:05.043] [settingssync] [info] Sync done. Took 106ms
