Validando git localizado em: git
Usando git 2.33.0 de git
> git rev-parse --git-dir
Open repository: /home/henrique/Programacao
> git fetch
> git status -z -u
> git symbolic-ref --short HEAD
> git for-each-ref --format=%(refname)%00%(upstream:short)%00%(objectname)%00%(upstream:track) refs/heads/master refs/remotes/master
> git for-each-ref --sort -committerdate --format %(refname) %(objectname) %(*objectname)
> git remote --verbose
> git config --get commit.template
Opening repository for path='/home/henrique/.config/i3' failed; ex=Failed to execute git {
  "exitCode": 128,
  "gitErrorCode": "NotAGitRepository",
  "gitCommand": "rev-parse",
  "stdout": "",
  "stderr": "fatal: not a git repository (or any of the parent directories): .git\n"
}
> git check-ignore -v -z --stdin
> git status -z -u
> git symbolic-ref --short HEAD
> git for-each-ref --format=%(refname)%00%(upstream:short)%00%(objectname)%00%(upstream:track) refs/heads/master refs/remotes/master
> git for-each-ref --sort -committerdate --format %(refname) %(objectname) %(*objectname)
> git remote --verbose
> git config --get commit.template
> git config --global user.email
> git config --global user.name
> git status -z -u
> git symbolic-ref --short HEAD
> git for-each-ref --format=%(refname)%00%(upstream:short)%00%(objectname)%00%(upstream:track) refs/heads/master refs/remotes/master
> git for-each-ref --sort -committerdate --format %(refname) %(objectname) %(*objectname)
> git remote --verbose
> git config --get commit.template
> git show -s --format=%an <%ae> [%ai] 808aa8252366a4e4d4070c3c6828ca0fac76d665
> git show -s --format=%H%n%aN%n%aE%n%at%n%ct%n%P%n%B -z 808aa8252366a4e4d4070c3c6828ca0fac76d665
> git show -s --format=%an <%ae> [%ai] 793decfb4c4d83ad94a4291d11462cb9c5aeb033
> git show -s --format=%H%n%aN%n%aE%n%at%n%ct%n%P%n%B -z 793decfb4c4d83ad94a4291d11462cb9c5aeb033
> git show -s --format=%an <%ae> [%ai] ce212ae75bcc606c7f61e85640ec5a99cdd09bc7
> git show -s --format=%H%n%aN%n%aE%n%at%n%ct%n%P%n%B -z ce212ae75bcc606c7f61e85640ec5a99cdd09bc7
> git show -s --format=%an <%ae> [%ai] 1305ca10c6b98a73e609d44bb8ce0f8c836fac77
> git show -s --format=%H%n%aN%n%aE%n%at%n%ct%n%P%n%B -z 1305ca10c6b98a73e609d44bb8ce0f8c836fac77
> git show -s --format=%an <%ae> [%ai] b287e9a653cfece70b81832d06968d9bde445b1a
> git show -s --format=%H%n%aN%n%aE%n%at%n%ct%n%P%n%B -z b287e9a653cfece70b81832d06968d9bde445b1a
> git show -s --format=%an <%ae> [%ai] dad186f69ab3af5681eb4419f6e5595eeedcdf0f
> git show -s --format=%H%n%aN%n%aE%n%at%n%ct%n%P%n%B -z dad186f69ab3af5681eb4419f6e5595eeedcdf0f
> git show -s --format=%an <%ae> [%ai] 6a6f8a032cde314c8f949fbf8e4a2a6d1dc76162
> git show -s --format=%H%n%aN%n%aE%n%at%n%ct%n%P%n%B -z 6a6f8a032cde314c8f949fbf8e4a2a6d1dc76162
> git show -s --format=%an <%ae> [%ai] 8b38a4ecc52e3db7f4a1b24a552911d1b4127615
> git show -s --format=%H%n%aN%n%aE%n%at%n%ct%n%P%n%B -z 8b38a4ecc52e3db7f4a1b24a552911d1b4127615
> git show -s --format=%an <%ae> [%ai] 6d30e096fb8027e297313eb0d5d3e3cc8579174c
> git show -s --format=%H%n%aN%n%aE%n%at%n%ct%n%P%n%B -z 6d30e096fb8027e297313eb0d5d3e3cc8579174c
> git show -s --format=%an <%ae> [%ai] ff9260629225cbf3c50344975fe0ddc5893a8495
> git show -s --format=%H%n%aN%n%aE%n%at%n%ct%n%P%n%B -z ff9260629225cbf3c50344975fe0ddc5893a8495
> git show -s --format=%an <%ae> [%ai] 344f53dd138a42b389a7c67e3648c328e7b3ef98
> git show -s --format=%H%n%aN%n%aE%n%at%n%ct%n%P%n%B -z 344f53dd138a42b389a7c67e3648c328e7b3ef98
> git show -s --format=%an <%ae> [%ai] 7dfaad3d3d3b47a8e37af129cb241b41f3eee6bd
> git show -s --format=%H%n%aN%n%aE%n%at%n%ct%n%P%n%B -z 7dfaad3d3d3b47a8e37af129cb241b41f3eee6bd
> git show -s --format=%an <%ae> [%ai] ca0974d37e79b11961de3874fb325f00dcc7da31
> git show -s --format=%H%n%aN%n%aE%n%at%n%ct%n%P%n%B -z ca0974d37e79b11961de3874fb325f00dcc7da31
> git show -s --format=%an <%ae> [%ai] acbf07c7997aaf27823a2467d1f5dbb062ca5dae
> git show -s --format=%H%n%aN%n%aE%n%at%n%ct%n%P%n%B -z acbf07c7997aaf27823a2467d1f5dbb062ca5dae
> git show -s --format=%an <%ae> [%ai] 39d573f93c63e057fce44bf1c0ff4b208fdd1a15
> git show -s --format=%H%n%aN%n%aE%n%at%n%ct%n%P%n%B -z 39d573f93c63e057fce44bf1c0ff4b208fdd1a15
> git show -s --format=%an <%ae> [%ai] ad15dec6b4f59f0c6e393bfa25f62d1311f8dda0
> git show -s --format=%an <%ae> [%ai] 5f0d37a9b2eb6e91bd4dbe047fb4a53cf73d6628
> git show -s --format=%H%n%aN%n%aE%n%at%n%ct%n%P%n%B -z ad15dec6b4f59f0c6e393bfa25f62d1311f8dda0
> git show -s --format=%H%n%aN%n%aE%n%at%n%ct%n%P%n%B -z 5f0d37a9b2eb6e91bd4dbe047fb4a53cf73d6628
> git show -s --format=%an <%ae> [%ai] 162a5d62194e710e2960e95cc88748c23a2db57e
> git show -s --format=%an <%ae> [%ai] 162a5d62194e710e2960e95cc88748c23a2db57e
> git show -s --format=%H%n%aN%n%aE%n%at%n%ct%n%P%n%B -z 162a5d62194e710e2960e95cc88748c23a2db57e
> git show -s --format=%H%n%aN%n%aE%n%at%n%ct%n%P%n%B -z 162a5d62194e710e2960e95cc88748c23a2db57e
> git show -s --format=%an <%ae> [%ai] f3622c3549ff219feef52c9b81e9eb319d13c0c1
> git show -s --format=%an <%ae> [%ai] f3622c3549ff219feef52c9b81e9eb319d13c0c1
> git show -s --format=%H%n%aN%n%aE%n%at%n%ct%n%P%n%B -z f3622c3549ff219feef52c9b81e9eb319d13c0c1
> git show -s --format=%H%n%aN%n%aE%n%at%n%ct%n%P%n%B -z f3622c3549ff219feef52c9b81e9eb319d13c0c1
> git config --local branch.master.github-pr-owner-number
