[2021-09-25 07:31:50.998] [settingssync] [info] Using settings sync service https://vscode-sync.trafficmanager.net/
[2021-09-25 07:31:50.998] [settingssync] [info] Auto Sync is enabled.
[2021-09-25 07:31:50.998] [settingssync] [info] Auto Sync: Suspended until auth token is available.
[2021-09-25 07:32:01.303] [settingssync] [info] Auto Sync: Started
[2021-09-25 07:32:01.303] [settingssync] [info] Auto Sync: Triggered by Interval
[2021-09-25 07:32:03.343] [settingssync] [info] Settings: No changes found during synchronizing settings.
[2021-09-25 07:32:03.396] [settingssync] [info] Keybindings: No changes found during synchronizing keybindings.
[2021-09-25 07:32:03.444] [settingssync] [info] Snippets: No changes found during synchronizing snippets.
[2021-09-25 07:32:05.547] [settingssync] [info] GlobalState: Updated remote ui state
[2021-09-25 07:32:05.677] [settingssync] [info] GlobalState: Updated last synchronized ui state
[2021-09-25 07:32:05.792] [settingssync] [info] Extensions: No changes found during synchronizing extensions.
[2021-09-25 07:32:05.796] [settingssync] [info] Sync done. Took 2641ms
[2021-09-25 07:32:30.982] [settingssync] [info] Auto Sync: Triggered by Activity
[2021-09-25 07:32:31.255] [settingssync] [info] Settings: No changes found during synchronizing settings.
[2021-09-25 07:32:31.257] [settingssync] [info] Keybindings: No changes found during synchronizing keybindings.
[2021-09-25 07:32:31.258] [settingssync] [info] Snippets: No changes found during synchronizing snippets.
[2021-09-25 07:32:32.352] [settingssync] [info] GlobalState: Updated remote ui state
[2021-09-25 07:32:32.387] [settingssync] [info] GlobalState: Updated last synchronized ui state
[2021-09-25 07:32:32.486] [settingssync] [info] Extensions: No changes found during synchronizing extensions.
[2021-09-25 07:32:32.490] [settingssync] [info] Sync done. Took 1245ms
