00:00:00.362942 VirtualBox GUI VM Selector Window 6.1.26 r145957 linux.amd64 (Jul 29 2021 12:15:28) release log
00:00:00.362944 Log opened 2021-09-09T11:05:33.269344000Z
00:00:00.362945 Build Type: release
00:00:00.362947 OS Product: Linux
00:00:00.362948 OS Release: 5.10.62-1-lts
00:00:00.362949 OS Version: #1 SMP Fri, 03 Sep 2021 10:00:32 +0000
00:00:00.362969 DMI Product Name: System Product Name
00:00:00.362977 DMI Product Version: System Version
00:00:00.362982 Firmware type: UEFI
00:00:00.363607 Secure Boot: Disabled
00:00:00.363643 Host RAM: 15921MB (15.5GB) total, 10297MB (10.0GB) available
00:00:00.363647 Executable: /usr/lib/virtualbox/VirtualBox
00:00:00.363647 Process ID: 47813
00:00:00.363648 Package type: LINUX_64BITS_GENERIC (OSE)
00:00:00.363674 Qt version: 5.15.2
00:00:00.373544 GUI: UIMediumEnumerator: Medium-enumeration started...
00:00:00.686532 GUI: UIDesktopWidgetWatchdog::sltHandleHostScreenAvailableGeometryCalculated: Screen 0 work area is actually resized to: 9x9 x 1265x1038
00:00:00.730353 GUI: UIMediumEnumerator: Medium-enumeration finished!
