00:00:00.200247 VirtualBox GUI VM Selector Window 6.1.26 r145957 linux.amd64 (Jul 29 2021 12:15:28) release log
00:00:00.200249 Log opened 2021-09-09T09:31:47.229130000Z
00:00:00.200249 Build Type: release
00:00:00.200251 OS Product: Linux
00:00:00.200252 OS Release: 5.10.62-1-lts
00:00:00.200252 OS Version: #1 SMP Fri, 03 Sep 2021 10:00:32 +0000
00:00:00.200266 DMI Product Name: System Product Name
00:00:00.200270 DMI Product Version: System Version
00:00:00.200273 Firmware type: UEFI
00:00:00.200889 Secure Boot: Disabled
00:00:00.200911 Host RAM: 15921MB (15.5GB) total, 13864MB (13.5GB) available
00:00:00.200913 Executable: /usr/lib/virtualbox/VirtualBox
00:00:00.200913 Process ID: 12358
00:00:00.200914 Package type: LINUX_64BITS_GENERIC (OSE)
00:00:00.200933 Qt version: 5.15.2
00:00:00.217464 GUI: UIMediumEnumerator: Medium-enumeration started...
00:00:00.217486 GUI: UIMediumEnumerator: Medium-enumeration finished!
00:00:00.581296 GUI: UIDesktopWidgetWatchdog::sltHandleHostScreenAvailableGeometryCalculated: Screen 0 work area is actually resized to: 9x9 x 1265x1038
00:01:39.004335 GUI: UIMediumEnumerator: Medium with key={{22d69383-4ea6-43c0-9ee6-fb33e1726fd3}} created
00:01:45.309158 GUI: UIMediumEnumerator: Medium-enumeration finished!
00:02:05.320096 GUI: UIMediumEnumerator: Medium-enumeration finished!
00:02:17.701826 GUI: UIMediumEnumerator: Medium-enumeration finished!
00:02:52.671011 GUI: UIMediumEnumerator: Medium-enumeration finished!
00:03:19.106439 ERROR [COM]: aRC=NS_ERROR_UNEXPECTED (0x8000ffff) aIID={c0447716-ff5a-4795-b57a-ecd5fffa18a4} aComponent={SessionWrap} aText={The session is not locked (session state: Unlocked)}, preserve=false aResultDetail=0
00:03:52.179599 GUI: UIMediumEnumerator: Medium with key={{783617fa-9f05-4d40-ac24-d815cfebda19}} created
00:03:55.708871 GUI: UIMediumEnumerator: Medium-enumeration finished!
00:04:19.966169 GUI: UIMediumEnumerator: Medium-enumeration finished!
00:04:29.404392 GUI: UIMediumEnumerator: Medium-enumeration finished!
00:05:16.790451 ERROR [COM]: aRC=NS_ERROR_UNEXPECTED (0x8000ffff) aIID={c0447716-ff5a-4795-b57a-ecd5fffa18a4} aComponent={SessionWrap} aText={The session is not locked (session state: Unlocked)}, preserve=false aResultDetail=0
