00:00:01.000238 VirtualBox GUI VM Selector Window 6.1.26 r145957 linux.amd64 (Jul 29 2021 12:15:28) release log
00:00:01.000244 Log opened 2021-09-13T21:50:54.932290000Z
00:00:01.000246 Build Type: release
00:00:01.000250 OS Product: Linux
00:00:01.000252 OS Release: 5.10.64-1-lts
00:00:01.000255 OS Version: #1 SMP Sun, 12 Sep 2021 09:11:21 +0000
00:00:01.000297 DMI Product Name: System Product Name
00:00:01.000316 DMI Product Version: System Version
00:00:01.000324 Firmware type: UEFI
00:00:01.001202 Secure Boot: Disabled
00:00:01.001282 Host RAM: 15920MB (15.5GB) total, 14891MB (14.5GB) available
00:00:01.001290 Executable: /usr/lib/virtualbox/VirtualBox
00:00:01.001292 Process ID: 2137
00:00:01.001293 Package type: LINUX_64BITS_GENERIC (OSE)
00:00:01.001350 Qt version: 5.15.2
00:00:01.171991 GUI: UIMediumEnumerator: Medium-enumeration started...
00:00:02.469715 GUI: UIDesktopWidgetWatchdog::sltHandleHostScreenAvailableGeometryCalculated: Screen 0 work area is actually resized to: 9x9 x 1267x1030
00:00:02.485449 GUI: UIMediumEnumerator: Medium-enumeration finished!
