00:00:00.344903 VirtualBox GUI VM Selector Window 6.1.26 r145957 linux.amd64 (Jul 29 2021 12:15:28) release log
00:00:00.344906 Log opened 2021-09-14T01:09:48.723901000Z
00:00:00.344907 Build Type: release
00:00:00.344909 OS Product: Linux
00:00:00.344910 OS Release: 5.10.64-1-lts
00:00:00.344912 OS Version: #1 SMP Sun, 12 Sep 2021 09:11:21 +0000
00:00:00.344935 DMI Product Name: System Product Name
00:00:00.344944 DMI Product Version: System Version
00:00:00.344950 Firmware type: UEFI
00:00:00.345594 Secure Boot: Disabled
00:00:00.345636 Host RAM: 15920MB (15.5GB) total, 12505MB (12.2GB) available
00:00:00.345640 Executable: /usr/lib/virtualbox/VirtualBox
00:00:00.345641 Process ID: 61411
00:00:00.345642 Package type: LINUX_64BITS_GENERIC (OSE)
00:00:00.345671 Qt version: 5.15.2
00:00:00.355833 GUI: UIMediumEnumerator: Medium-enumeration started...
00:00:00.654907 GUI: UIDesktopWidgetWatchdog::sltHandleHostScreenAvailableGeometryCalculated: Screen 0 work area is actually resized to: 9x9 x 1267x1030
00:00:00.684635 GUI: UIMediumEnumerator: Medium-enumeration finished!
00:00:37.053955 GUI: UIMediumEnumerator: Medium with key={{c20c434b-fd3b-4e65-a305-6bd78c819168}} created
00:00:37.469234 GUI: UIMediumEnumerator: Medium-enumeration finished!
00:01:41.027682 GUI: UIMediumEnumerator: Medium-enumeration finished!
00:01:51.679919 GUI: UIMediumEnumerator: Medium with key={{713e4ec6-ce52-45ea-a4ec-97cd17b54cdd}} created
00:01:51.973027 GUI: UIMediumEnumerator: Medium-enumeration finished!
00:26:26.255892 GUI: UIMediumEnumerator: Medium-enumeration finished!
00:26:26.527668 GUI: UIMediumEnumerator: Medium-enumeration finished!
00:31:01.156341 GUI: UIMediumEnumerator: Medium-enumeration finished!
00:32:31.851519 GUI: UIMediumEnumerator: Medium-enumeration finished!
00:32:32.827823 GUI: UIMediumEnumerator: Medium-enumeration finished!
