00:00:00.490498 VirtualBox GUI VM Selector Window 6.1.26 r145957 linux.amd64 (Jul 29 2021 12:15:28) release log
00:00:00.490504 Log opened 2021-09-09T09:28:01.234175000Z
00:00:00.490506 Build Type: release
00:00:00.490511 OS Product: Linux
00:00:00.490513 OS Release: 5.10.62-1-lts
00:00:00.490516 OS Version: #1 SMP Fri, 03 Sep 2021 10:00:32 +0000
00:00:00.490557 DMI Product Name: System Product Name
00:00:00.490576 DMI Product Version: System Version
00:00:00.490586 Firmware type: UEFI
00:00:00.491511 Secure Boot: Disabled
00:00:00.491601 Host RAM: 15921MB (15.5GB) total, 13670MB (13.3GB) available
00:00:00.491610 Executable: /usr/lib/virtualbox/VirtualBox
00:00:00.491611 Process ID: 10752
00:00:00.491612 Package type: LINUX_64BITS_GENERIC (OSE)
00:00:00.491669 Qt version: 5.15.2
00:00:00.522635 GUI: UIMediumEnumerator: Medium-enumeration started...
00:00:00.522690 GUI: UIMediumEnumerator: Medium-enumeration finished!
00:00:00.967116 GUI: UIDesktopWidgetWatchdog::sltHandleHostScreenAvailableGeometryCalculated: Screen 0 work area is actually resized to: 1282x532 x 632x515
