00:00:00.161012 VirtualBox GUI VM Selector Window 6.1.26 r145957 linux.amd64 (Jul 29 2021 12:15:28) release log
00:00:00.161013 Log opened 2021-09-09T11:42:58.119714000Z
00:00:00.161014 Build Type: release
00:00:00.161015 OS Product: Linux
00:00:00.161015 OS Release: 5.10.62-1-lts
00:00:00.161016 OS Version: #1 SMP Fri, 03 Sep 2021 10:00:32 +0000
00:00:00.161028 DMI Product Name: System Product Name
00:00:00.161032 DMI Product Version: System Version
00:00:00.161035 Firmware type: UEFI
00:00:00.161592 Secure Boot: Disabled
00:00:00.161615 Host RAM: 15921MB (15.5GB) total, 10321MB (10.0GB) available
00:00:00.161617 Executable: /usr/lib/virtualbox/VirtualBox
00:00:00.161617 Process ID: 67848
00:00:00.161617 Package type: LINUX_64BITS_GENERIC (OSE)
00:00:00.161634 Qt version: 5.15.2
00:00:00.169653 GUI: UIMediumEnumerator: Medium-enumeration started...
00:00:00.481504 GUI: UIDesktopWidgetWatchdog::sltHandleHostScreenAvailableGeometryCalculated: Screen 0 work area is actually resized to: 9x9 x 1265x1038
00:00:00.512825 GUI: UIMediumEnumerator: Medium-enumeration finished!
00:02:30.319272 GUI: UIMediumEnumerator: Medium-enumeration finished!
00:02:32.892423 GUI: UIMediumEnumerator: Medium-enumeration finished!
