00:00:00.953157 VirtualBox GUI VM Selector Window 6.1.26 r145957 linux.amd64 (Jul 29 2021 12:15:28) release log
00:00:00.953163 Log opened 2021-09-14T01:53:43.818622000Z
00:00:00.953165 Build Type: release
00:00:00.953169 OS Product: Linux
00:00:00.953172 OS Release: 5.10.64-1-lts
00:00:00.953174 OS Version: #1 SMP Sun, 12 Sep 2021 09:11:21 +0000
00:00:00.953213 DMI Product Name: System Product Name
00:00:00.953230 DMI Product Version: System Version
00:00:00.953239 Firmware type: UEFI
00:00:00.954310 Secure Boot: Disabled
00:00:00.954413 Host RAM: 15920MB (15.5GB) total, 13984MB (13.6GB) available
00:00:00.954421 Executable: /usr/lib/virtualbox/VirtualBox
00:00:00.954423 Process ID: 3553
00:00:00.954424 Package type: LINUX_64BITS_GENERIC (OSE)
00:00:00.954480 Qt version: 5.15.2
00:00:01.103988 GUI: UIMediumEnumerator: Medium-enumeration started...
00:00:02.237405 GUI: UIDesktopWidgetWatchdog::sltHandleHostScreenAvailableGeometryCalculated: Screen 0 work area is actually resized to: 9x9 x 1263x1026
00:00:02.280560 GUI: UIMediumEnumerator: Medium-enumeration finished!
00:02:44.013283 GUI: UIMediumEnumerator: Medium-enumeration finished!
