00:00:00.675134 VirtualBox GUI VM Selector Window 6.1.26 r145957 linux.amd64 (Jul 29 2021 12:15:28) release log
00:00:00.675135 Log opened 2021-09-13T19:51:41.890662000Z
00:00:00.675135 Build Type: release
00:00:00.675137 OS Product: Linux
00:00:00.675137 OS Release: 5.10.64-1-lts
00:00:00.675138 OS Version: #1 SMP Sun, 12 Sep 2021 09:11:21 +0000
00:00:00.675154 DMI Product Name: System Product Name
00:00:00.675159 DMI Product Version: System Version
00:00:00.675163 Firmware type: UEFI
00:00:00.675753 Secure Boot: Disabled
00:00:00.675798 Host RAM: 15920MB (15.5GB) total, 10675MB (10.4GB) available
00:00:00.675800 Executable: /usr/lib/virtualbox/VirtualBox
00:00:00.675800 Process ID: 106741
00:00:00.675800 Package type: LINUX_64BITS_GENERIC (OSE)
00:00:00.675825 Qt version: 5.15.2
00:00:00.748682 GUI: UIMediumEnumerator: Medium-enumeration started...
00:00:01.776807 GUI: UIDesktopWidgetWatchdog::sltHandleHostScreenAvailableGeometryCalculated: Screen 0 work area is actually resized to: 9x9 x 1267x1030
00:00:01.805610 GUI: UIMediumEnumerator: Medium-enumeration finished!
00:00:47.743121 GUI: UIMediumEnumerator: Medium-enumeration finished!
00:00:48.661696 GUI: UIMediumEnumerator: Medium-enumeration finished!
00:01:58.673129 GUI: UIMediumEnumerator: Medium-enumeration finished!
00:06:24.895648 GUI: UIMediumEnumerator: Medium-enumeration finished!
