00:00:00.332791 VirtualBox GUI VM Selector Window 6.1.26 r145957 linux.amd64 (Jul 29 2021 12:15:28) release log
00:00:00.332792 Log opened 2021-09-09T11:10:21.106907000Z
00:00:00.332793 Build Type: release
00:00:00.332794 OS Product: Linux
00:00:00.332795 OS Release: 5.10.62-1-lts
00:00:00.332796 OS Version: #1 SMP Fri, 03 Sep 2021 10:00:32 +0000
00:00:00.332810 DMI Product Name: System Product Name
00:00:00.332815 DMI Product Version: System Version
00:00:00.332818 Firmware type: UEFI
00:00:00.333305 Secure Boot: Disabled
00:00:00.333338 Host RAM: 15921MB (15.5GB) total, 10421MB (10.1GB) available
00:00:00.333341 Executable: /usr/lib/virtualbox/VirtualBox
00:00:00.333341 Process ID: 57119
00:00:00.333342 Package type: LINUX_64BITS_GENERIC (OSE)
00:00:00.333363 Qt version: 5.15.2
00:00:00.347973 GUI: UIMediumEnumerator: Medium-enumeration started...
00:00:00.667166 GUI: UIDesktopWidgetWatchdog::sltHandleHostScreenAvailableGeometryCalculated: Screen 0 work area is actually resized to: 9x9 x 1265x1038
00:00:00.697099 GUI: UIMediumEnumerator: Medium-enumeration finished!
00:01:56.740877 GUI: UIMediumEnumerator: Medium-enumeration finished!
00:03:13.696114 GUI: UIMediumEnumerator: Medium with key={{d820c1ca-bedd-470f-a1c5-b38e5aff9dcb}} created
00:03:14.433138 GUI: UIMediumEnumerator: Medium-enumeration finished!
00:03:48.841330 GUI: UIMediumEnumerator: Medium-enumeration finished!
00:03:58.895857 GUI: UIMediumEnumerator: Medium with key={{cfe4719d-b105-483e-9034-3f552b2e02c5}} created
00:03:59.181688 GUI: UIMediumEnumerator: Medium-enumeration finished!
00:05:20.695395 GUI: UIMediumEnumerator: Medium-enumeration finished!
00:20:10.248979 GUI: UIMediumEnumerator: Medium-enumeration finished!
00:20:10.404302 GUI: UIMediumEnumerator: Medium-enumeration finished!
00:20:15.059623 GUI: UIMediumEnumerator: Medium-enumeration finished!
00:24:08.528174 GUI: UIMediumEnumerator: Medium-enumeration finished!
00:24:09.482457 GUI: UIMediumEnumerator: Medium-enumeration finished!
00:29:38.895208 GUI: UIMediumEnumerator: Medium-enumeration finished!
00:29:39.883913 GUI: UIMediumEnumerator: Medium-enumeration finished!
00:32:30.351669 GUI: UIMediumEnumerator: Medium-enumeration finished!
