00:00:00.000107 main     VirtualBox XPCOM Server 6.1.26 r145957 linux.amd64 (Jul 29 2021 12:15:28) release log
00:00:00.000109 main     Log opened 2021-09-09T11:05:33.040802000Z
00:00:00.000109 main     Build Type: release
00:00:00.000110 main     OS Product: Linux
00:00:00.000111 main     OS Release: 5.10.62-1-lts
00:00:00.000112 main     OS Version: #1 SMP Fri, 03 Sep 2021 10:00:32 +0000
00:00:00.000124 main     DMI Product Name: System Product Name
00:00:00.000130 main     DMI Product Version: System Version
00:00:00.000133 main     Firmware type: UEFI
00:00:00.000779 main     Secure Boot: Disabled
00:00:00.000799 main     Host RAM: 15921MB (15.5GB) total, 10299MB (10.0GB) available
00:00:00.000801 main     Executable: /usr/lib/virtualbox/VBoxSVC
00:00:00.000801 main     Process ID: 47838
00:00:00.000801 main     Package type: LINUX_64BITS_GENERIC (OSE)
00:00:00.001813 main     IPC socket path: /tmp/.vbox-henrique-ipc/ipcd
00:00:00.105648 nspr-2   VirtualBox: object creation starts
00:00:00.105790 nspr-2   Home directory: '/home/henrique/.config/VirtualBox'
00:00:00.106055 nspr-2   Loading settings file "/home/henrique/.config/VirtualBox/VirtualBox.xml" with version "1.12-linux"
00:00:00.107722 nspr-2   HostDnsMonitor: initializing
00:00:00.108182 nspr-2   NAT: resolv.conf: nameserver 10.0.0.1
00:00:00.108223 nspr-2   HostDnsMonitor: updating information
00:00:00.108258 nspr-2   HostDnsMonitor: old information
00:00:00.108266 nspr-2     no server entries
00:00:00.108273 nspr-2     no domain set
00:00:00.108279 nspr-2     no search string entries
00:00:00.108286 nspr-2   HostDnsMonitor: new information
00:00:00.108292 nspr-2     server 1: 10.0.0.1
00:00:00.108300 nspr-2     no domain set
00:00:00.108306 nspr-2     no search string entries
00:00:00.113961 nspr-2   Failed to open "/dev/vboxdrvu", errno=2, rc=VERR_VM_DRIVER_NOT_INSTALLED
00:00:00.116391 nspr-2   VD: VDInit finished with VINF_SUCCESS
00:00:00.126079 nspr-2   Loading settings file "/home/henrique/VirtualBox VMs/Arco Pen/Arco Pen.vbox" with version "1.16-linux"
00:00:00.127502 nspr-2   Loading settings file "/home/henrique/VirtualBox VMs/arc/arc.vbox" with version "1.16-linux"
00:00:00.129300 nspr-2   OCI: Local config file '/home/henrique/.config/VirtualBox/oci_config' does not exist
00:00:00.129335 nspr-2   OCI: Original config file '/home/henrique/.oci/config' does not exist
00:00:00.129344 nspr-2   OCI: Reading profiles finished with status NS_OK
00:00:00.129392 nspr-2   ExtPack: Created cloud provider 'OCI' (hrc=NS_OK)
00:00:00.129469 nspr-2   VirtualBox: object created
00:00:00.602709 nspr-3   WARNING [COM]: aRC=NS_ERROR_FAILURE (0x80004005) aIID={16ced992-5fdc-4aba-aff5-6a39bbd7c38b} aComponent={HostWrap} aText={Could not load the Host USB Proxy service: VERR_NOT_FOUND}, preserve=true  aResultDetail=0
00:00:00.739891 nspr-2   Failed to open "/dev/vboxdrvu", errno=2, rc=VERR_VM_DRIVER_NOT_INSTALLED
00:00:00.859346 nspr-2   WARNING [COM]: aRC=NS_ERROR_FAILURE (0x80004005) aIID={16ced992-5fdc-4aba-aff5-6a39bbd7c38b} aComponent={HostWrap} aText={Could not load the Host USB Proxy service: VERR_NOT_FOUND}, preserve=true  aResultDetail=0
00:00:00.859938 nspr-2   WARNING [COM]: aRC=NS_ERROR_FAILURE (0x80004005) aIID={16ced992-5fdc-4aba-aff5-6a39bbd7c38b} aComponent={HostWrap} aText={Could not load the Host USB Proxy service: VERR_NOT_FOUND}, preserve=true  aResultDetail=0
00:00:02.342801 nspr-3   WARNING [COM]: aRC=NS_ERROR_FAILURE (0x80004005) aIID={16ced992-5fdc-4aba-aff5-6a39bbd7c38b} aComponent={HostWrap} aText={Could not load the Host USB Proxy service: VERR_NOT_FOUND}, preserve=true  aResultDetail=0
00:00:02.369347 nspr-3   Failed to open "/dev/vboxdrvu", errno=2, rc=VERR_VM_DRIVER_NOT_INSTALLED
00:00:02.391776 nspr-3   WARNING [COM]: aRC=NS_ERROR_FAILURE (0x80004005) aIID={16ced992-5fdc-4aba-aff5-6a39bbd7c38b} aComponent={HostWrap} aText={Could not load the Host USB Proxy service: VERR_NOT_FOUND}, preserve=true  aResultDetail=0
00:00:02.392695 nspr-3   WARNING [COM]: aRC=NS_ERROR_FAILURE (0x80004005) aIID={16ced992-5fdc-4aba-aff5-6a39bbd7c38b} aComponent={HostWrap} aText={Could not load the Host USB Proxy service: VERR_NOT_FOUND}, preserve=true  aResultDetail=0
00:00:02.650439 nspr-3   WARNING [COM]: aRC=NS_ERROR_FAILURE (0x80004005) aIID={16ced992-5fdc-4aba-aff5-6a39bbd7c38b} aComponent={HostWrap} aText={Could not load the Host USB Proxy service: VERR_NOT_FOUND}, preserve=true  aResultDetail=0
00:00:02.676515 nspr-3   Failed to open "/dev/vboxdrvu", errno=2, rc=VERR_VM_DRIVER_NOT_INSTALLED
00:00:02.705265 nspr-3   WARNING [COM]: aRC=NS_ERROR_FAILURE (0x80004005) aIID={16ced992-5fdc-4aba-aff5-6a39bbd7c38b} aComponent={HostWrap} aText={Could not load the Host USB Proxy service: VERR_NOT_FOUND}, preserve=true  aResultDetail=0
00:00:02.705967 nspr-3   WARNING [COM]: aRC=NS_ERROR_FAILURE (0x80004005) aIID={16ced992-5fdc-4aba-aff5-6a39bbd7c38b} aComponent={HostWrap} aText={Could not load the Host USB Proxy service: VERR_NOT_FOUND}, preserve=true  aResultDetail=0
00:00:03.053818 nspr-2   WARNING [COM]: aRC=NS_ERROR_FAILURE (0x80004005) aIID={16ced992-5fdc-4aba-aff5-6a39bbd7c38b} aComponent={HostWrap} aText={Could not load the Host USB Proxy service: VERR_NOT_FOUND}, preserve=true  aResultDetail=0
00:00:03.079959 nspr-2   Failed to open "/dev/vboxdrvu", errno=2, rc=VERR_VM_DRIVER_NOT_INSTALLED
00:00:03.141360 nspr-2   WARNING [COM]: aRC=NS_ERROR_FAILURE (0x80004005) aIID={16ced992-5fdc-4aba-aff5-6a39bbd7c38b} aComponent={HostWrap} aText={Could not load the Host USB Proxy service: VERR_NOT_FOUND}, preserve=true  aResultDetail=0
00:00:03.145422 nspr-2   WARNING [COM]: aRC=NS_ERROR_FAILURE (0x80004005) aIID={16ced992-5fdc-4aba-aff5-6a39bbd7c38b} aComponent={HostWrap} aText={Could not load the Host USB Proxy service: VERR_NOT_FOUND}, preserve=true  aResultDetail=0
00:00:03.503028 nspr-2   WARNING [COM]: aRC=NS_ERROR_FAILURE (0x80004005) aIID={16ced992-5fdc-4aba-aff5-6a39bbd7c38b} aComponent={HostWrap} aText={Could not load the Host USB Proxy service: VERR_NOT_FOUND}, preserve=true  aResultDetail=0
00:00:03.529553 nspr-3   Failed to open "/dev/vboxdrvu", errno=2, rc=VERR_VM_DRIVER_NOT_INSTALLED
00:00:03.604004 nspr-2   WARNING [COM]: aRC=NS_ERROR_FAILURE (0x80004005) aIID={16ced992-5fdc-4aba-aff5-6a39bbd7c38b} aComponent={HostWrap} aText={Could not load the Host USB Proxy service: VERR_NOT_FOUND}, preserve=true  aResultDetail=0
00:00:03.611094 nspr-2   WARNING [COM]: aRC=NS_ERROR_FAILURE (0x80004005) aIID={16ced992-5fdc-4aba-aff5-6a39bbd7c38b} aComponent={HostWrap} aText={Could not load the Host USB Proxy service: VERR_NOT_FOUND}, preserve=true  aResultDetail=0
00:01:26.463264 nspr-2   Saving settings file "/home/henrique/.config/VirtualBox/VirtualBox.xml" with version "1.12-linux"
00:01:26.526459 nspr-4   Saving settings file "/home/henrique/.config/VirtualBox/VirtualBox.xml" with version "1.12-linux"
00:01:32.109329 main     VirtualBox: object deletion starts
00:01:32.109618 main     ERROR [COM]: aRC=VBOX_E_OBJECT_IN_USE (0x80bb000c) aIID={ad47ad09-787b-44ab-b343-a082a3f2dfb1} aComponent={MediumWrap} aText={Medium '/home/henrique/VirtualBox VMs/arc/arc.vdi' cannot be closed because it is still attached to 1 virtual machines}, preserve=false aResultDetail=0
00:01:32.110332 main     HostDnsMonitor: shutting down ...
00:01:32.127144 main     HostDnsMonitor: shut down
00:01:32.150710 Watcher  ERROR [COM]: aRC=E_ACCESSDENIED (0x80070005) aIID={d0a0163f-e254-4e5b-a1f2-011cf991c38d} aComponent={VirtualBoxWrap} aText={The object is not ready}, preserve=false aResultDetail=0
00:01:37.127315 main     {00007f8e88017130} HostPowerServiceLinux::~HostPowerServiceLinux: RTThreadWait() for 5000 ms failed with VERR_TIMEOUT
00:01:37.128243 main     VirtualBox: object deleted
