00:00:00.000185 main     VirtualBox XPCOM Server 6.1.26 r145957 linux.amd64 (Jul 29 2021 12:15:28) release log
00:00:00.000188 main     Log opened 2021-09-13T19:51:41.556618000Z
00:00:00.000188 main     Build Type: release
00:00:00.000190 main     OS Product: Linux
00:00:00.000191 main     OS Release: 5.10.64-1-lts
00:00:00.000191 main     OS Version: #1 SMP Sun, 12 Sep 2021 09:11:21 +0000
00:00:00.000210 main     DMI Product Name: System Product Name
00:00:00.000216 main     DMI Product Version: System Version
00:00:00.000220 main     Firmware type: UEFI
00:00:00.000781 main     Secure Boot: Disabled
00:00:00.000816 main     Host RAM: 15920MB (15.5GB) total, 10680MB (10.4GB) available
00:00:00.000820 main     Executable: /usr/lib/virtualbox/VBoxSVC
00:00:00.000820 main     Process ID: 106769
00:00:00.000820 main     Package type: LINUX_64BITS_GENERIC (OSE)
00:00:00.002381 main     IPC socket path: /tmp/.vbox-henrique-ipc/ipcd
00:00:00.106355 nspr-2   VirtualBox: object creation starts
00:00:00.106457 nspr-2   Home directory: '/home/henrique/.config/VirtualBox'
00:00:00.113389 nspr-2   Loading settings file "/home/henrique/.config/VirtualBox/VirtualBox.xml" with version "1.12-linux"
00:00:00.140773 nspr-2   Successfully initialised host USB using sysfs
00:00:00.141477 nspr-2   HostDnsMonitor: initializing
00:00:00.141871 nspr-2   NAT: resolv.conf: nameserver 10.0.0.1
00:00:00.141902 nspr-2   HostDnsMonitor: updating information
00:00:00.141928 nspr-2   HostDnsMonitor: old information
00:00:00.141934 nspr-2     no server entries
00:00:00.141938 nspr-2     no domain set
00:00:00.141942 nspr-2     no search string entries
00:00:00.141947 nspr-2   HostDnsMonitor: new information
00:00:00.141950 nspr-2     server 1: 10.0.0.1
00:00:00.141956 nspr-2     no domain set
00:00:00.141959 nspr-2     no search string entries
00:00:00.147761 nspr-2   VD: VDInit finished with VINF_SUCCESS
00:00:00.198794 nspr-2   Loading settings file "/home/henrique/VirtualBox VMs/arc/arc.vbox" with version "1.16-linux"
00:00:00.215540 nspr-2   Loading settings file "/home/henrique/VirtualBox VMs/Archcraft/Archcraft.vbox" with version "1.16-linux"
00:00:00.216505 nspr-2   Loading settings file "/home/henrique/VirtualBox VMs/usb arco/usb arco.vbox" with version "1.16-linux"
00:00:00.217688 nspr-2   OCI: Local config file '/home/henrique/.config/VirtualBox/oci_config' does not exist
00:00:00.217716 nspr-2   OCI: Original config file '/home/henrique/.oci/config' does not exist
00:00:00.217722 nspr-2   OCI: Reading profiles finished with status NS_OK
00:00:00.217731 nspr-2   ExtPack: Created cloud provider 'OCI' (hrc=NS_OK)
00:00:00.217753 nspr-2   VirtualBox: object created
00:00:15.446313 nspr-5   Launched VM: 1946163392 pid: 106865 (0x1a171) frontend: GUI/Qt name: arc
00:00:16.231800 nspr-6   Load [/usr/lib/virtualbox/ExtensionPacks/Oracle_VM_VirtualBox_Extension_Pack/linux.amd64/VBoxHostWebcam.so] vrc=VINF_SUCCESS
00:00:16.288098 nspr-6   ERROR [COM]: aRC=VBOX_E_IPRT_ERROR (0x80bb0005) aIID={85632c68-b5bb-4316-a900-5eb28d3413df} aComponent={SessionMachine} aText={Saved screenshot data is not available (VERR_NOT_SUPPORTED)}, preserve=false aResultDetail=-37
00:00:47.282449 nspr-4   Saving settings file "/home/henrique/VirtualBox VMs/arc/arc.vbox" with version "1.16-linux"
00:00:47.516163 nspr-4   Saving settings file "/home/henrique/VirtualBox VMs/arc/arc.vbox" with version "1.16-linux"
00:00:48.134571 nspr-7   Saving settings file "/home/henrique/VirtualBox VMs/arc/arc.vbox" with version "1.16-linux"
00:00:51.034947 nspr-8   Launched VM: 1946182832 pid: 107085 (0x1a24d) frontend: GUI/Qt name: Archcraft
00:00:51.745593 nspr-4   Load [/usr/lib/virtualbox/ExtensionPacks/Oracle_VM_VirtualBox_Extension_Pack/linux.amd64/VBoxHostWebcam.so] vrc=VINF_SUCCESS
00:00:51.810782 nspr-6   ERROR [COM]: aRC=VBOX_E_IPRT_ERROR (0x80bb0005) aIID={85632c68-b5bb-4316-a900-5eb28d3413df} aComponent={SessionMachine} aText={Saved screenshot data is not available (VERR_NOT_SUPPORTED)}, preserve=false aResultDetail=-37
00:01:58.253278 nspr-2   Saving settings file "/home/henrique/VirtualBox VMs/Archcraft/Archcraft.vbox" with version "1.16-linux"
00:06:23.824522 nspr-2   Saving settings file "/home/henrique/VirtualBox VMs/Archcraft/Archcraft.vbox" with version "1.16-linux"
00:06:24.495379 nspr-3   Saving settings file "/home/henrique/VirtualBox VMs/Archcraft/Archcraft.vbox" with version "1.16-linux"
00:06:49.667627 nspr-7   Saving settings file "/home/henrique/.config/VirtualBox/VirtualBox.xml" with version "1.12-linux"
00:06:49.730917 nspr-7   Saving settings file "/home/henrique/.config/VirtualBox/VirtualBox.xml" with version "1.12-linux"
00:06:49.788275 nspr-8   Saving settings file "/home/henrique/.config/VirtualBox/VirtualBox.xml" with version "1.12-linux"
00:06:49.835084 nspr-2   Saving settings file "/home/henrique/.config/VirtualBox/VirtualBox.xml" with version "1.12-linux"
00:06:49.893948 nspr-6   Saving settings file "/home/henrique/.config/VirtualBox/VirtualBox.xml" with version "1.12-linux"
00:06:55.447866 main     VirtualBox: object deletion starts
00:06:55.447894 main     ERROR [COM]: aRC=VBOX_E_OBJECT_IN_USE (0x80bb000c) aIID={ad47ad09-787b-44ab-b343-a082a3f2dfb1} aComponent={MediumWrap} aText={Medium '/home/henrique/VirtualBox VMs/arc/arc.vdi' cannot be closed because it is still attached to 1 virtual machines}, preserve=false aResultDetail=0
00:06:55.447975 main     ERROR [COM]: aRC=VBOX_E_OBJECT_IN_USE (0x80bb000c) aIID={ad47ad09-787b-44ab-b343-a082a3f2dfb1} aComponent={MediumWrap} aText={Medium '/home/henrique/VirtualBox VMs/Archcraft/Archcraft.vdi' cannot be closed because it is still attached to 1 virtual machines}, preserve=false aResultDetail=0
00:06:55.448181 main     HostDnsMonitor: shutting down ...
00:06:55.481253 main     HostDnsMonitor: shut down
00:06:55.833845 Watcher  ERROR [COM]: aRC=E_ACCESSDENIED (0x80070005) aIID={d0a0163f-e254-4e5b-a1f2-011cf991c38d} aComponent={VirtualBoxWrap} aText={The object is not ready}, preserve=false aResultDetail=0
00:07:00.481503 main     {00007fba780184a0} HostPowerServiceLinux::~HostPowerServiceLinux: RTThreadWait() for 5000 ms failed with VERR_TIMEOUT
00:07:00.481852 main     VirtualBox: object deleted
