00:00:00.004620 main     VirtualBox XPCOM Server 6.1.26 r145957 linux.amd64 (Jul 29 2021 12:15:28) release log
00:00:00.004623 main     Log opened 2021-09-13T21:50:54.469488000Z
00:00:00.004623 main     Build Type: release
00:00:00.004625 main     OS Product: Linux
00:00:00.004625 main     OS Release: 5.10.64-1-lts
00:00:00.004626 main     OS Version: #1 SMP Sun, 12 Sep 2021 09:11:21 +0000
00:00:00.004643 main     DMI Product Name: System Product Name
00:00:00.004649 main     DMI Product Version: System Version
00:00:00.004652 main     Firmware type: UEFI
00:00:00.005392 main     Secure Boot: Disabled
00:00:00.005418 main     Host RAM: 15920MB (15.5GB) total, 14886MB (14.5GB) available
00:00:00.005420 main     Executable: /usr/lib/virtualbox/VBoxSVC
00:00:00.005421 main     Process ID: 2165
00:00:00.005421 main     Package type: LINUX_64BITS_GENERIC (OSE)
00:00:00.006658 main     IPC socket path: /tmp/.vbox-henrique-ipc/ipcd
00:00:00.111285 nspr-2   VirtualBox: object creation starts
00:00:00.111587 nspr-2   Home directory: '/home/henrique/.config/VirtualBox'
00:00:00.118369 nspr-2   Loading settings file "/home/henrique/.config/VirtualBox/VirtualBox.xml" with version "1.12-linux"
00:00:00.139128 nspr-2   Successfully initialised host USB using sysfs
00:00:00.140075 nspr-2   HostDnsMonitor: initializing
00:00:00.140602 nspr-2   NAT: resolv.conf: nameserver 10.0.0.1
00:00:00.140644 nspr-2   HostDnsMonitor: updating information
00:00:00.140680 nspr-2   HostDnsMonitor: old information
00:00:00.140688 nspr-2     no server entries
00:00:00.140695 nspr-2     no domain set
00:00:00.140701 nspr-2     no search string entries
00:00:00.140707 nspr-2   HostDnsMonitor: new information
00:00:00.140713 nspr-2     server 1: 10.0.0.1
00:00:00.140721 nspr-2     no domain set
00:00:00.140727 nspr-2     no search string entries
00:00:00.148803 nspr-2   VD: VDInit finished with VINF_SUCCESS
00:00:00.219169 nspr-2   Loading settings file "/home/henrique/VirtualBox VMs/arc/arc.vbox" with version "1.16-linux"
00:00:00.254884 nspr-2   Loading settings file "/home/henrique/VirtualBox VMs/Archcraft/Archcraft.vbox" with version "1.16-linux"
00:00:00.268337 nspr-2   Loading settings file "/home/henrique/VirtualBox VMs/usb arco/usb arco.vbox" with version "1.16-linux"
00:00:00.269997 nspr-2   OCI: Local config file '/home/henrique/.config/VirtualBox/oci_config' does not exist
00:00:00.270023 nspr-2   OCI: Original config file '/home/henrique/.oci/config' does not exist
00:00:00.270029 nspr-2   OCI: Reading profiles finished with status NS_OK
00:00:00.270043 nspr-2   ExtPack: Created cloud provider 'OCI' (hrc=NS_OK)
00:00:00.270065 nspr-2   VirtualBox: object created
00:00:05.160667 nspr-5   Launched VM: 1744841328 pid: 2211 (0x8a3) frontend: GUI/Qt name: Archcraft
00:00:06.104467 nspr-4   Load [/usr/lib/virtualbox/ExtensionPacks/Oracle_VM_VirtualBox_Extension_Pack/linux.amd64/VBoxHostWebcam.so] vrc=VINF_SUCCESS
00:00:06.275350 nspr-2   ERROR [COM]: aRC=VBOX_E_IPRT_ERROR (0x80bb0005) aIID={85632c68-b5bb-4316-a900-5eb28d3413df} aComponent={SessionMachine} aText={Saved screenshot data is not available (VERR_NOT_SUPPORTED)}, preserve=false aResultDetail=-37
00:01:08.282267 nspr-7   ERROR [COM]: aRC=VBOX_E_IPRT_ERROR (0x80bb0005) aIID={85632c68-b5bb-4316-a900-5eb28d3413df} aComponent={SessionMachine} aText={Saved screenshot data is not available (VERR_NOT_SUPPORTED)}, preserve=false aResultDetail=-37
00:01:50.097056 nspr-7   ERROR [COM]: aRC=VBOX_E_IPRT_ERROR (0x80bb0005) aIID={85632c68-b5bb-4316-a900-5eb28d3413df} aComponent={SessionMachine} aText={Saved screenshot data is not available (VERR_NOT_SUPPORTED)}, preserve=false aResultDetail=-37
00:20:18.628288 nspr-3   Saving settings file "/home/henrique/VirtualBox VMs/Archcraft/Archcraft.vbox" with version "1.16-linux"
00:20:38.066689 nspr-5   Saving settings file "/home/henrique/.config/VirtualBox/VirtualBox.xml" with version "1.12-linux"
00:20:38.121965 nspr-6   Saving settings file "/home/henrique/.config/VirtualBox/VirtualBox.xml" with version "1.12-linux"
00:20:43.668821 main     VirtualBox: object deletion starts
00:20:43.668933 main     ERROR [COM]: aRC=VBOX_E_OBJECT_IN_USE (0x80bb000c) aIID={ad47ad09-787b-44ab-b343-a082a3f2dfb1} aComponent={MediumWrap} aText={Medium '/home/henrique/VirtualBox VMs/arc/arc.vdi' cannot be closed because it is still attached to 1 virtual machines}, preserve=false aResultDetail=0
00:20:43.669233 main     ERROR [COM]: aRC=VBOX_E_OBJECT_IN_USE (0x80bb000c) aIID={ad47ad09-787b-44ab-b343-a082a3f2dfb1} aComponent={MediumWrap} aText={Medium '/home/henrique/VirtualBox VMs/Archcraft/Archcraft.vdi' cannot be closed because it is still attached to 1 virtual machines}, preserve=false aResultDetail=0
00:20:43.670102 main     HostDnsMonitor: shutting down ...
00:20:43.712895 main     HostDnsMonitor: shut down
00:20:44.145620 Watcher  ERROR [COM]: aRC=E_ACCESSDENIED (0x80070005) aIID={d0a0163f-e254-4e5b-a1f2-011cf991c38d} aComponent={VirtualBoxWrap} aText={The object is not ready}, preserve=false aResultDetail=0
00:20:48.713165 main     {00007f126c0184a0} HostPowerServiceLinux::~HostPowerServiceLinux: RTThreadWait() for 5000 ms failed with VERR_TIMEOUT
00:20:48.714052 main     VirtualBox: object deleted
