00:00:00.005669 main     VirtualBox XPCOM Server 6.1.26 r145957 linux.amd64 (Jul 29 2021 12:15:28) release log
00:00:00.005670 main     Log opened 2021-09-14T01:53:43.364284000Z
00:00:00.005671 main     Build Type: release
00:00:00.005672 main     OS Product: Linux
00:00:00.005673 main     OS Release: 5.10.64-1-lts
00:00:00.005673 main     OS Version: #1 SMP Sun, 12 Sep 2021 09:11:21 +0000
00:00:00.005686 main     DMI Product Name: System Product Name
00:00:00.005690 main     DMI Product Version: System Version
00:00:00.005693 main     Firmware type: UEFI
00:00:00.006458 main     Secure Boot: Disabled
00:00:00.006479 main     Host RAM: 15920MB (15.5GB) total, 13996MB (13.6GB) available
00:00:00.006480 main     Executable: /usr/lib/virtualbox/VBoxSVC
00:00:00.006481 main     Process ID: 3578
00:00:00.006481 main     Package type: LINUX_64BITS_GENERIC (OSE)
00:00:00.007459 main     IPC socket path: /tmp/.vbox-henrique-ipc/ipcd
00:00:00.111726 nspr-2   VirtualBox: object creation starts
00:00:00.111869 nspr-2   Home directory: '/home/henrique/.config/VirtualBox'
00:00:00.117303 nspr-2   Loading settings file "/home/henrique/.config/VirtualBox/VirtualBox.xml" with version "1.12-linux"
00:00:00.138764 nspr-2   Successfully initialised host USB using sysfs
00:00:00.139346 nspr-2   HostDnsMonitor: initializing
00:00:00.139562 nspr-2   NAT: resolv.conf: nameserver 10.0.0.1
00:00:00.139577 nspr-2   HostDnsMonitor: updating information
00:00:00.139594 nspr-2   HostDnsMonitor: old information
00:00:00.139598 nspr-2     no server entries
00:00:00.139601 nspr-2     no domain set
00:00:00.139604 nspr-2     no search string entries
00:00:00.139608 nspr-2   HostDnsMonitor: new information
00:00:00.139611 nspr-2     server 1: 10.0.0.1
00:00:00.139615 nspr-2     no domain set
00:00:00.139618 nspr-2     no search string entries
00:00:00.143655 nspr-2   VD: VDInit finished with VINF_SUCCESS
00:00:00.180470 nspr-2   Loading settings file "/home/henrique/VirtualBox VMs/Archcraft/Archcraft.vbox" with version "1.16-linux"
00:00:00.194880 nspr-2   Loading settings file "/home/henrique/VirtualBox VMs/arcob/arcob.vbox" with version "1.16-linux"
00:00:00.197100 nspr-2   OCI: Local config file '/home/henrique/.config/VirtualBox/oci_config' does not exist
00:00:00.197141 nspr-2   OCI: Original config file '/home/henrique/.oci/config' does not exist
00:00:00.197150 nspr-2   OCI: Reading profiles finished with status NS_OK
00:00:00.197163 nspr-2   ExtPack: Created cloud provider 'OCI' (hrc=NS_OK)
00:00:00.197197 nspr-2   VirtualBox: object created
00:00:06.186670 nspr-2   Launched VM: 4160760752 pid: 3632 (0xe30) frontend: GUI/Qt name: arcob
00:00:07.072215 nspr-5   Load [/usr/lib/virtualbox/ExtensionPacks/Oracle_VM_VirtualBox_Extension_Pack/linux.amd64/VBoxHostWebcam.so] vrc=VINF_SUCCESS
00:00:07.222082 nspr-6   ERROR [COM]: aRC=VBOX_E_IPRT_ERROR (0x80bb0005) aIID={85632c68-b5bb-4316-a900-5eb28d3413df} aComponent={SessionMachine} aText={Saved screenshot data is not available (VERR_NOT_SUPPORTED)}, preserve=false aResultDetail=-37
00:02:43.421588 nspr-8   Saving settings file "/home/henrique/VirtualBox VMs/arcob/arcob.vbox" with version "1.16-linux"
00:03:29.254392 nspr-6   Saving settings file "/home/henrique/VirtualBox VMs/arcob/arcob.vbox" with version "1.16-linux"
00:12:27.368979 nspr-4   Saving settings file "/home/henrique/.config/VirtualBox/VirtualBox.xml" with version "1.12-linux"
00:12:27.456817 nspr-5   Saving settings file "/home/henrique/.config/VirtualBox/VirtualBox.xml" with version "1.12-linux"
00:12:27.518532 nspr-3   Saving settings file "/home/henrique/.config/VirtualBox/VirtualBox.xml" with version "1.12-linux"
00:12:27.592874 nspr-8   Saving settings file "/home/henrique/.config/VirtualBox/VirtualBox.xml" with version "1.12-linux"
00:12:27.641989 nspr-2   Saving settings file "/home/henrique/.config/VirtualBox/VirtualBox.xml" with version "1.12-linux"
00:12:33.214410 main     VirtualBox: object deletion starts
00:12:33.214490 main     ERROR [COM]: aRC=VBOX_E_OBJECT_IN_USE (0x80bb000c) aIID={ad47ad09-787b-44ab-b343-a082a3f2dfb1} aComponent={MediumWrap} aText={Medium '/home/henrique/VirtualBox VMs/Archcraft/Archcraft.vdi' cannot be closed because it is still attached to 1 virtual machines}, preserve=false aResultDetail=0
00:12:33.214804 main     ERROR [COM]: aRC=VBOX_E_OBJECT_IN_USE (0x80bb000c) aIID={ad47ad09-787b-44ab-b343-a082a3f2dfb1} aComponent={MediumWrap} aText={Medium '/home/henrique/VirtualBox VMs/arcob/arcob.vdi' cannot be closed because it is still attached to 1 virtual machines}, preserve=false aResultDetail=0
00:12:33.215530 main     HostDnsMonitor: shutting down ...
00:12:33.249229 main     HostDnsMonitor: shut down
00:12:33.393926 Watcher  ERROR [COM]: aRC=E_ACCESSDENIED (0x80070005) aIID={d0a0163f-e254-4e5b-a1f2-011cf991c38d} aComponent={VirtualBoxWrap} aText={The object is not ready}, preserve=false aResultDetail=0
00:12:38.249826 main     {00007f62fc0181d0} HostPowerServiceLinux::~HostPowerServiceLinux: RTThreadWait() for 5000 ms failed with VERR_TIMEOUT
00:12:38.250671 main     VirtualBox: object deleted
