00:00:00.000128 main     VirtualBox XPCOM Server 6.1.26 r145957 linux.amd64 (Jul 29 2021 12:15:28) release log
00:00:00.000130 main     Log opened 2021-09-14T01:09:48.507909000Z
00:00:00.000130 main     Build Type: release
00:00:00.000131 main     OS Product: Linux
00:00:00.000131 main     OS Release: 5.10.64-1-lts
00:00:00.000132 main     OS Version: #1 SMP Sun, 12 Sep 2021 09:11:21 +0000
00:00:00.000144 main     DMI Product Name: System Product Name
00:00:00.000148 main     DMI Product Version: System Version
00:00:00.000150 main     Firmware type: UEFI
00:00:00.000770 main     Secure Boot: Disabled
00:00:00.000791 main     Host RAM: 15920MB (15.5GB) total, 12507MB (12.2GB) available
00:00:00.000793 main     Executable: /usr/lib/virtualbox/VBoxSVC
00:00:00.000793 main     Process ID: 61437
00:00:00.000793 main     Package type: LINUX_64BITS_GENERIC (OSE)
00:00:00.001774 main     IPC socket path: /tmp/.vbox-henrique-ipc/ipcd
00:00:00.105775 nspr-2   VirtualBox: object creation starts
00:00:00.105910 nspr-2   Home directory: '/home/henrique/.config/VirtualBox'
00:00:00.106179 nspr-2   Loading settings file "/home/henrique/.config/VirtualBox/VirtualBox.xml" with version "1.12-linux"
00:00:00.111126 nspr-2   Successfully initialised host USB using sysfs
00:00:00.112108 nspr-2   HostDnsMonitor: initializing
00:00:00.112584 nspr-2   NAT: resolv.conf: nameserver 10.0.0.1
00:00:00.112617 nspr-2   HostDnsMonitor: updating information
00:00:00.112650 nspr-2   HostDnsMonitor: old information
00:00:00.112657 nspr-2     no server entries
00:00:00.112664 nspr-2     no domain set
00:00:00.112670 nspr-2     no search string entries
00:00:00.112676 nspr-2   HostDnsMonitor: new information
00:00:00.112682 nspr-2     server 1: 10.0.0.1
00:00:00.112691 nspr-2     no domain set
00:00:00.112696 nspr-2     no search string entries
00:00:00.120668 nspr-2   VD: VDInit finished with VINF_SUCCESS
00:00:00.129942 nspr-2   Loading settings file "/home/henrique/VirtualBox VMs/arc/arc.vbox" with version "1.16-linux"
00:00:00.131144 nspr-2   Loading settings file "/home/henrique/VirtualBox VMs/Archcraft/Archcraft.vbox" with version "1.16-linux"
00:00:00.132838 nspr-2   Loading settings file "/home/henrique/VirtualBox VMs/usb arco/usb arco.vbox" with version "1.16-linux"
00:00:00.134664 nspr-2   OCI: Local config file '/home/henrique/.config/VirtualBox/oci_config' does not exist
00:00:00.134697 nspr-2   OCI: Original config file '/home/henrique/.oci/config' does not exist
00:00:00.134706 nspr-2   OCI: Reading profiles finished with status NS_OK
00:00:00.134718 nspr-2   ExtPack: Created cloud provider 'OCI' (hrc=NS_OK)
00:00:00.134751 nspr-2   VirtualBox: object created
00:00:09.396883 nspr-5   Saving settings file "/home/henrique/.config/VirtualBox/VirtualBox.xml" with version "1.12-linux"
00:00:13.328109 nspr-4   Saving settings file "/home/henrique/.config/VirtualBox/VirtualBox.xml" with version "1.12-linux"
00:00:36.350456 createBase Saving settings file "/home/henrique/.config/VirtualBox/VirtualBox.xml" with version "1.12-linux"
00:00:36.950500 nspr-4   Saving settings file "/home/henrique/VirtualBox VMs/arcob/arcob.vbox" with version "1.16-linux"
00:00:37.038929 nspr-3   Saving settings file "/home/henrique/VirtualBox VMs/arcob/arcob.vbox" with version "1.16-linux"
00:00:37.110917 nspr-3   Saving settings file "/home/henrique/.config/VirtualBox/VirtualBox.xml" with version "1.12-linux"
00:00:37.169306 nspr-3   Saving settings file "/home/henrique/.config/VirtualBox/VirtualBox.xml" with version "1.12-linux"
00:00:37.224066 nspr-4   Saving settings file "/home/henrique/VirtualBox VMs/arcob/arcob.vbox" with version "1.16-linux"
00:01:40.756757 nspr-2   Saving settings file "/home/henrique/VirtualBox VMs/arcob/arcob.vbox" with version "1.16-linux"
00:01:51.553787 nspr-5   Saving settings file "/home/henrique/.config/VirtualBox/VirtualBox.xml" with version "1.12-linux"
00:01:51.621308 nspr-5   Saving settings file "/home/henrique/.config/VirtualBox/VirtualBox.xml" with version "1.12-linux"
00:01:51.686187 nspr-4   Saving settings file "/home/henrique/VirtualBox VMs/arcob/arcob.vbox" with version "1.16-linux"
00:01:51.736297 nspr-5   Saving settings file "/home/henrique/VirtualBox VMs/arcob/arcob.vbox" with version "1.16-linux"
00:01:57.041967 nspr-4   Launched VM: 134224864 pid: 62026 (0xf24a) frontend: GUI/Qt name: arcob
00:01:57.647086 nspr-3   Load [/usr/lib/virtualbox/ExtensionPacks/Oracle_VM_VirtualBox_Extension_Pack/linux.amd64/VBoxHostWebcam.so] vrc=VINF_SUCCESS
00:01:57.700689 nspr-3   ERROR [COM]: aRC=VBOX_E_IPRT_ERROR (0x80bb0005) aIID={85632c68-b5bb-4316-a900-5eb28d3413df} aComponent={SessionMachine} aText={Saved screenshot data is not available (VERR_NOT_SUPPORTED)}, preserve=false aResultDetail=-37
00:26:25.865499 nspr-6   Saving settings file "/home/henrique/VirtualBox VMs/arcob/arcob.vbox" with version "1.16-linux"
00:26:26.134073 nspr-3   Saving settings file "/home/henrique/VirtualBox VMs/arcob/arcob.vbox" with version "1.16-linux"
00:31:00.895170 nspr-6   Saving settings file "/home/henrique/VirtualBox VMs/arcob/arcob.vbox" with version "1.16-linux"
00:32:31.648562 nspr-8   Saving settings file "/home/henrique/VirtualBox VMs/arcob/arcob.vbox" with version "1.16-linux"
00:32:31.896273 nspr-9   Saving settings file "/home/henrique/VirtualBox VMs/arcob/arcob.vbox" with version "1.16-linux"
00:32:32.595754 nspr-6   Saving settings file "/home/henrique/VirtualBox VMs/arcob/arcob.vbox" with version "1.16-linux"
00:35:12.949868 main     VirtualBox: object deletion starts
00:35:12.949962 main     ERROR [COM]: aRC=VBOX_E_OBJECT_IN_USE (0x80bb000c) aIID={ad47ad09-787b-44ab-b343-a082a3f2dfb1} aComponent={MediumWrap} aText={Medium '/home/henrique/VirtualBox VMs/Archcraft/Archcraft.vdi' cannot be closed because it is still attached to 1 virtual machines}, preserve=false aResultDetail=0
00:35:12.950261 main     ERROR [COM]: aRC=VBOX_E_OBJECT_IN_USE (0x80bb000c) aIID={ad47ad09-787b-44ab-b343-a082a3f2dfb1} aComponent={MediumWrap} aText={Medium '/home/henrique/VirtualBox VMs/arcob/arcob.vdi' cannot be closed because it is still attached to 1 virtual machines}, preserve=false aResultDetail=0
00:35:12.951000 main     HostDnsMonitor: shutting down ...
00:35:12.951393 Watcher  ERROR [COM]: aRC=E_ACCESSDENIED (0x80070005) aIID={d0a0163f-e254-4e5b-a1f2-011cf991c38d} aComponent={VirtualBoxWrap} aText={The object is not ready}, preserve=false aResultDetail=0
00:35:13.000038 main     HostDnsMonitor: shut down
00:35:18.000571 main     {00007f49280184a0} HostPowerServiceLinux::~HostPowerServiceLinux: RTThreadWait() for 5000 ms failed with VERR_TIMEOUT
00:35:18.002095 main     VirtualBox: object deleted
